\relax 
\citation{c1}
\citation{c1}
\citation{c2}
\citation{c2}
\babel@aux{english}{}
\@writefile{toc}{\contentsline {section}{\numberline {1}Problem statement and parameters}{1}}
\@writefile{lof}{\contentsline {figure}{\numberline {1}{\ignorespaces Simple Pendulum \cite  {c1}\relax }}{1}}
\providecommand*\caption@xref[2]{\@setref\relax\@undefined{#1}}
\newlabel{fig:single}{{1}{1}}
\@writefile{lof}{\contentsline {figure}{\numberline {2}{\ignorespaces Double Pendulum \cite  {c2}\relax }}{2}}
\newlabel{fig:double}{{2}{2}}
\@writefile{toc}{\contentsline {section}{\numberline {2}Derivation}{2}}
\newlabel{eq:theta1}{{9}{3}}
\bibcite{c1}{1}
\bibcite{c2}{2}
\bibcite{c3}{3}
\newlabel{eq:theta2}{{14}{4}}
